{
    "items": [
        {
            "id": "site|AR|4844|2|0|300400|2017-07-10|4|BRB|prepaid_installments,prepaid_one_payment|2017-07-07T11:29:42",
            "hotel_id": "300400",
            "checkin_date": "2017-07-14",
            "checkout_date": "2017-07-18",
            "payment_types": [
                "prepaid_installments",
                "prepaid_one_payment"
            ],
            "max_installment_quantity": 50,
            "contract_currency": "USD",
            "contract_currency_rate": 1,
            "meal_plan": {
                "id": "BRB"
            },
            "price_detail": {
                "currency": "USD",
                "subtotal": 177.84,
                "taxes": 0,
                "taxes_detail": [
                    {
                        "code": "base",
                        "amount": 0
                    }
                ],
                "fee": 23,
                "discounts": 0,
                "total": 201.67,
                "nightly": {
                    "subtotal": 44.46,
                    "total": 50.42
                }
            },
            "context": "hotel",
            "tags": [
                "smart_deal"
            ]
        }
    ]
}